Data Exploration Analysis: 2016 Presidential Election Example
…
#In `election_raw`, county level data has values for county
election_county<-election_raw %>% filter(!is.na(county))

The county and state winners:

#The winner of each county
county_winner<-election_county %>%
  group_by(fips) %>% 
    #group by county
    mutate(total=sum(votes), pct=votes/total) %>%
    #We want the top row because it shows the winner of the county
    top_n(1) 
county_winner

## # A tibble: 3,111 x 7
## # Groups:   fips [3,111]
##    county             fips  candidate       state   votes   total   pct
##    <chr>              <chr> <fct>           <chr>   <int>   <int> <dbl>
##  1 Los Angeles County 6037  Hillary Clinton CA    2464364 3421533 0.720
##  2 Cook County        17031 Hillary Clinton IL    1611946 2156395 0.748
##  3 Maricopa County    4013  Donald Trump    AZ     747361 1536743 0.486
##  4 Harris County      48201 Hillary Clinton TX     707914 1305434 0.542
##  5 San Diego County   6073  Hillary Clinton CA     735476 1291078 0.570
##  6 Orange County      6059  Hillary Clinton CA     609961 1186203 0.514
##  7 King County        53033 Hillary Clinton WA     718322  998499 0.719
##  8 Miami-Dade County  12086 Hillary Clinton FL     624146  980204 0.637
##  9 Broward County     12011 Hillary Clinton FL     553320  831950 0.665
## 10 Kings County       36047 Hillary Clinton NY     640553  800393 0.800
## # ... with 3,101 more rows

#The winner of each state
state_winner<-election_state %>%
  group_by(fips) %>%
  mutate(total=sum(votes), pct=votes/total) %>%
  top_n(1)
state_winner

## # A tibble: 52 x 7
## # Groups:   fips [52]
##    county fips  candidate       state   votes    total   pct
##    <chr>  <chr> <fct>           <chr>   <int>    <int> <dbl>
##  1 <NA>   CA    Hillary Clinton CA    8753788 14060856 0.623
##  2 <NA>   FL    Donald Trump    FL    4617886  9419886 0.490
##  3 <NA>   TX    Donald Trump    TX    4685047  8917965 0.525
##  4 <NA>   NY    Hillary Clinton NY    4556124  7660190 0.595
##  5 <NA>   PA    Donald Trump    PA    2970733  6115402 0.486
##  6 <NA>   IL    Hillary Clinton IL    3090729  5523142 0.560
##  7 <NA>   OH    Donald Trump    OH    2841005  5480173 0.518
##  8 <NA>   MI    Donald Trump    MI    2279543  4790329 0.476
##  9 <NA>   NC    Donald Trump    NC    2362631  4682073 0.505
## 10 <NA>   GA    Donald Trump    GA    2089104  4092373 0.510
## # ... with 42 more rows
…
