2016 Election Analysis
…
## [1] 9

## # A tibble: 23 x 2
## # Groups:   State [10]
##    State                County              
##    <chr>                <chr>               
##  1 California           Marin               
##  2 California           San Francisco       
##  3 California           San Mateo           
##  4 California           Santa Clara         
##  5 Colorado             Pitkin              
##  6 Connecticut          Fairfield           
##  7 District of Columbia District of Columbia
##  8 Maryland             Howard              
##  9 Maryland             Montgomery          
## 10 Massachusetts        Middlesex           
## # ... with 13 more rows
…
